-------------------------------------------------------------------------------
Test set: com.ri.gateway.utils.PropertiesUtilsTest
-------------------------------------------------------------------------------
Tests run: 4, Failures: 0, Errors: 0, Skipped: 0, Time elapsed: 0 sec
