C:\Users\lonlj3\Dev\cloud-connect-pnol-stream\src\test\java\com\ri\gateway\pubsub\PubsubParserTest.java
C:\Users\lonlj3\Dev\cloud-connect-pnol-stream\src\test\java\com\ri\gateway\utils\DateUtilsTest.java
C:\Users\lonlj3\Dev\cloud-connect-pnol-stream\src\test\java\com\ri\gateway\utils\PropertiesUtilsTest.java
C:\Users\lonlj3\Dev\cloud-connect-pnol-stream\src\test\java\com\ri\gateway\utils\ConversionUtilsTest.java
